atividade_integradora_new.utf8.md
…
## Setting direction: controls < cases
## Setting direction: controls < cases
## Setting direction: controls < cases
## Setting direction: controls < cases
## Setting direction: controls < cases
## Setting direction: controls < cases
## Setting direction: controls < cases
## Setting direction: controls < cases
## Setting direction: controls < cases
## Setting direction: controls < cases
## Setting direction: controls < cases
## Setting direction: controls < cases
## Setting direction: controls < cases

## # A tibble: 100 x 3
##    penalty .estimator roc_auc
##      <dbl> <chr>        <dbl>
##  1  0.0202 binary       0.873
##  2  0.0222 binary       0.873
##  3  0.0244 binary       0.872
##  4  0.0267 binary       0.872
##  5  0.0293 binary       0.872
##  6  0.0322 binary       0.872
##  7  0.0353 binary       0.872
##  8  0.0388 binary       0.872
##  9  0.0426 binary       0.872
## 10  0.0467 binary       0.871
## #  with 90 more rows
…
## Setting direction: controls < cases
## Setting direction: controls < cases
## Setting direction: controls < cases
## Setting direction: controls < cases
## Setting direction: controls < cases
## Setting direction: controls < cases
## Setting direction: controls < cases
## Setting direction: controls < cases
## Setting direction: controls < cases
## Setting direction: controls < cases
## Setting direction: controls < cases
## Setting direction: controls < cases
## Setting direction: controls < cases

## # A tibble: 68 x 3
##     penalty .estimator roc_auc
##       <dbl> <chr>        <dbl>
##  1 0.00110  binary       0.874
##  2 0.00121  binary       0.874
##  3 0.00133  binary       0.874
##  4 0.00101  binary       0.874
##  5 0.00146  binary       0.874
##  6 0.00176  binary       0.874
##  7 0.000917 binary       0.874
##  8 0.000836 binary       0.874
##  9 0.00160  binary       0.874
## 10 0.000762 binary       0.874
## #  with 58 more rows
…
